<svg xmlns="http://www.w3.org/2000/svg"
         viewBox="0 0 177.165 88.583"
         height="200px"
         width="300px"
         class="title-image"
         title="ElenQ Technology"
         alt="ElenQ Technology">
      <g font-weight="100"
         font-family="Armata"
         letter-spacing="0"
         word-spacing="0">
      <g style="line-height:125%">
      <path
        style="-inkscape-font-specification:'Armata Thin'"
        d="M14.289
        54.201h27.525v-2.7h-24.3v-17.25h20.55v-2.7h-20.55v-15.9h24.3v-2.7H14.289v41.25zm32.666
        0h3.225v-41.25h-3.225v41.25zm8.414-14.775c0 11.25 8.7 15.6 16.5 15.6 11.85
        0 15.3-4.725 16.05-9.225h-3.6c-.75 1.875-2.175 6-12.45 6-5.925
        0-12.45-3.6-12.975-11.025h29.025v-3.225c-.75-10.425-6.45-15.75-16.05-15.75-9.6
        0-16.5 7.2-16.5 17.625zm3.675-1.875c1.05-7.875 5.175-12.6 13.125-12.6s11.4
        5.1 12.15 12.6H59.044zm34.275 16.65h3.225V28.326c1.575-2.025 5.025-3.225
        10.2-3.225 3.6 0 8.1 1.35 8.1
        7.65v21.45h3.45v-21.45c0-8.25-6.15-10.95-11.55-10.95-5.55 0-9.075 1.35-10.2
        4.05v-3.225h-3.225v31.575zm29.944-20.625c0 11.175 9.3 21.45 20.625 21.45 4.8 0
        9.15-1.875 12.675-4.8l4.8 3.975h3.75l-6.6-5.775c3.675-3.975 6-9.3 6-14.85
        0-11.1-9.225-21.375-20.625-21.375s-20.625 10.2-20.625 21.375zm3.3 0c0-9.15
        7.575-18.3 17.325-18.3s17.325 9.15 17.325 18.3-7.575 18.375-17.325
        18.375-17.325-9.225-17.325-18.375z"
        font-size="75"/>
      </g>
      <g style="line-height:125%">
      <path style="-inkscape-font-specification:'Armata Thin'"
            d="M28.71
            64.185h4.038v12.184h1.021V64.185h4.061v-.879h-9.12v.879zm10.606
            12.184h8.716v-.855h-7.695V70.05h6.508v-.855h-6.508V64.16h7.695v-.855h-8.716V76.37zm10.225-6.532c0
            4.275 1.972 6.793 5.63 6.793 2.802 0 5.153-1.496 5.153-3.634h-1.14c0
            1.306-1.568 2.613-4.014 2.613-3.159 0-4.512-3.064-4.512-5.772 0-3.11 1.828-5.77
            4.607-5.77 2.423 0 3.919 1.258 3.919
            2.683h1.14c0-2.351-2.351-3.681-5.154-3.681-3.895 0-5.629 3.467-5.629
            6.768zm12.412
            6.532h1.02V70.05h6.508v6.318h1.022V63.306H69.48v5.89h-6.507v-5.89h-1.021V76.37zm10.344
            0h1.045V65.254l7.196
            11.115h1.021V63.306h-1.02V74.54l-7.197-11.234h-1.045V76.37zm10.897-6.532c0 3.54
            2.945 6.793 6.532 6.793 3.586 0 6.53-3.254 6.53-6.793
            0-3.515-2.92-6.768-6.53-6.768-3.61 0-6.532 3.23-6.532 6.768zm1.045 0c0-2.897
            2.4-5.795 5.487-5.795s5.486 2.898 5.486 5.795c0 2.898-2.399 5.82-5.486
            5.82-3.088 0-5.487-2.922-5.487-5.82zm13.616
            6.532h7.909v-1.022h-6.888v-12.04h-1.021v13.062zm9.368-6.532c0 3.54 2.945 6.793
            6.531 6.793s6.531-3.254 6.531-6.793c0-3.515-2.921-6.768-6.531-6.768s-6.531
            3.23-6.531 6.768zm1.045 0c0-2.897 2.398-5.795 5.486-5.795 3.087 0 5.486 2.898
            5.486 5.795 0 2.898-2.399 5.82-5.486 5.82-3.088
            0-5.486-2.922-5.486-5.82zm13.544 0c0 4.275 1.971 6.793 5.629 6.793 1.638 0
            3.087-.523 4.013-1.378v1.117h1.022v-6.413h-5.225v1.021h4.203v2.02c0 1.305-1.567
            2.612-4.013 2.612-3.16 0-4.513-3.064-4.513-5.772 0-3.11 1.829-5.77 4.608-5.77
            2.422 0 3.918 1.258 3.918 2.683h1.022c0-2.351-2.233-3.681-5.035-3.681-3.895
            0-5.63 3.467-5.63 6.768zm12.173-6.531l4.75
            7.624v5.439h1.02v-5.44l4.775-7.623h-1.14l-4.133 6.65-4.109-6.65h-1.163z"
            font-size="23.75"/>
      </g>
      </g>
    </svg>
